"Resource/UI/HudPlayerHealth.res"
{	

	"Crosshair1"
	{
		"ControlName"		"CTFImagePanel"
		"fieldName"			"Crosshair1"
		"xpos"				"cs-0.5"
		"ypos"				"cs-0.5"
		"zpos"				"198"
		"wide"				"20" // Crosshair1 size
		"tall"				"20" // Crosshair1 size
		"visible"			"1" // Crosshair1 enabled
		"enabled"			"1" // Crosshair1 enabled
		"image"				"replay/thumbnails/xhairs/xhair1"
		"scaleImage"		"1"
		"drawcolor"			"G_Crosshair1Color"
		"Alpha"				"255" // Crosshair1 opacity
	}
	"Crosshair2"
	{
		"ControlName"		"CTFImagePanel"
		"fieldName"			"Crosshair2"
		"xpos"				"cs-0.5"
		"ypos"				"cs-0.5"
		"zpos"				"197"
		"wide"				"22" // Crosshair2 size
		"tall"				"22" // Crosshair2 size
		"visible"			"1" // Crosshair2 enabled
		"enabled"			"1" // Crosshair2 enabled
		"image"				"replay/thumbnails/xhairs/xhair2"
		"scaleImage"		"1"
		"drawcolor"			"G_Crosshair2Color"
		"Alpha"				"255" // Crosshair2 opacity
	}
	"Crosshair3"
	{
		"ControlName"		"CTFImagePanel"
		"fieldName"			"Crosshair3"
		"xpos"				"cs-0.5"
		"ypos"				"cs-0.5"
		"zpos"				"196"
		"wide"				"20" // Crosshair3 size
		"tall"				"20" // Crosshair3 size
		"visible"			"0" // Crosshair3 enabled
		"enabled"			"0" // Crosshair3 enabled
		"image"				"replay/thumbnails/xhairs/xhair3"
		"scaleImage"		"1"
		"drawcolor"			"G_Crosshair3Color"
		"Alpha"				"255" // Crosshair3 opacity
	}

	"Hitmarker"
	{
		"ControlName"	"CTFImagePanel"
		"fieldName"		"Hitmarker"
		"xpos"			"c-4"
		"ypos"			"c-4"
		"zpos"			"20"
		"wide"			"8"
		"tall"			"8"
		"enabled"		"1"
		"visible"		"1"
		"image"			"replay/thumbnails/hitmarker_red"
		"scaleImage"	"1"	
		"Alpha"			"0"
		"teambg_2"		"replay/thumbnails/hitmarker_red"
		"teambg_3"		"replay/thumbnails/hitmarker_blue"
	}

	// ==============================================================================

	// Team indicator (on the bottom left corner)
	
	"teamindicator"
	{
		"ControlName"	"CTFImagePanel"
		"fieldName"		"teamindicator"
		"xpos"			"-9999" // 1 TI
		"ypos"			"-9999" // 2 TI
		"zpos"			"50"		
		"wide"			"30"
		"tall"			"30"
		"visible"		"1"
		"enabled"		"1"
		"scaleImage"	"1"
		"image"				"replay/thumbnails/redcorner"
		"teambg_2"			"replay/thumbnails/redcorner"
		"teambg_3"			"replay/thumbnails/bluecorner"
	}
	
	"HudPlayerHealth"
	{
		"ControlName"	"EditablePanel"
		"fieldName"		"HudPlayerHealth"
		"xpos"			"0"
		"ypos"			"0"
		"xpos_minmode"	"0"
		"ypos_minmode"	"0"
		"zpos"			"2"
		"wide"			"f0"
		"tall"			"480"
		"visible"		"1"
		"enabled"		"1"
		"HealthBonusPosAdj"			"50" // Grow size
		"HealthDeathWarning"		"0.50" // Warning percent
		"HealthDeathWarningColor"	"G_Warning"
	}
	
	"PlayerStatusHealthImage"
	{
		"ControlName"	"ImagePanel"
		"fieldName"		"PlayerStatusHealthImage"
		"xpos"			"c-268" // HB xpos
		"ypos"			"r81" // HB ypos
		"xpos_minmode"	"c-248" // HB min xpos
		"ypos_minmode"	"c+57" // HB min ypos
		"zpos"			"4"
		"wide"			"50" // HB size
		"tall"			"50" // HB size
		"visible"		"1" // HB enabled
		"enabled"		"1" // HB enabled
		"scaleImage"	"1"	
	}
	
	"PlayerStatusHealthImageBG"
	{
		"ControlName"	"ImagePanel"
		"fieldName"		"PlayerStatusHealthImageBG"
		"xpos"			"c-270" // HB bg xpos
		"ypos"			"r83" // HB bg ypos
		"xpos_minmode"	"c-250" // HB bg min xpos
		"ypos_minmode"	"c+55" // HB bg min ypos
		"zpos"			"3"
		"wide"			"54" // HB bg size
		"tall"			"54"// HB bg size
		"visible"		"1" // HB enabled
		"enabled"		"1" // HB enabled
		"Alpha"			"255" // HB enabled
		"image"			"../hud/health_bg"
		"scaleImage"	"1"
	}	
	
	"PlayerStatusHealthBonusImage"
	{
		"ControlName"	"ImagePanel"
		"fieldName"		"PlayerStatusHealthBonusImage"
		"xpos"			"c-192"	// HOC
		"ypos"			"r87"
		"xpos_minmode"	"c-172" // HOC
		"ypos_minmode"	"c+53"		
		"zpos"			"3"
		"wide"			"60"
		"tall"			"60"
		"visible"		"1"
		"enabled"		"1"
		"image"			"../hud/health_over_bg"
		"scaleImage"	"1"
	}
	
	"PlayerStatusHealthValue"
	{
		"ControlName"	"CExLabel"
		"fieldName"		"PlayerStatusHealthValue"
		"xpos"			"-9999"
		"ypos"			"-9999"
		"wide"			"0"
		"tall"			"0"
		"visible"		"0"
		"enabled"		"0"
		"labelText"		""
	}	
	
	"G_PlayerStatusHealthValue"
	{
		"ControlName"	"CExLabel"
		"fieldName"		"G_PlayerStatusHealthValue"
		"xpos"			"c-224"
		"ypos"			"r82"
		"xpos_minmode"	"c-204"
		"ypos_minmode"	"c+58"
		"zpos"			"7"
		"wide"			"124"
		"tall"			"50"
		"visible"		"1"
		"enabled"		"1"
		"labelText"		"%Health%"
		"textAlignment"	"center"
		"font"			"G_FontHealth"
		"fgcolor"		"G_HealthValue"
	}	
	"G_PlayerStatusHealthValueShadow"
	{
		"ControlName"	"CExLabel"
		"fieldName"		"PlayerStatusHealthValueShadow"
		"xpos"			"c-222"
		"ypos"			"r80"
		"xpos_minmode"	"c-202"
		"ypos_minmode"	"c+60"
		"zpos"			"7"
		"wide"			"124"
		"tall"			"50"
		"visible"		"1"
		"enabled"		"1"
		"paintbackground"	"1"
		"bgcolor_override"	"255 0 0 0"
		"paintbackgroundtype"	"2"
		"labelText"		"%Health%"
		"textAlignment" "center"
		"font"			"G_FontHealth"
		"fgcolor"		"G_Shadow"
	}
	
	"PlayerStatusMaxHealthValue"
	{
		"ControlName"	"CExLabel"
		"fieldName"		"PlayerStatusMaxHealthValue"
		"xpos"			"76"
		"xpos_minmode"	"61"
		"ypos"			"20"	[$WIN32]
		"ypos"			"55"	[$X360]
		"zpos"			"6"
		"wide"			"50"
		"tall"			"18"
		"visible"		"0"
		"enabled"		"0"
		"labelText"		"%MaxHealth%"
		"textAlignment"	"center"	
		"font"			"DefaultSmall"
		"fgcolor"		"TanDark"
	}
	
	"PlayerStatusBleedImage"
	{
		"ControlName"	"ImagePanel"
		"fieldName"		"PlayerStatusBleedImage"
		"xpos"			"0"
		"ypos"			"r114"
		"ypos_minmode"	"c+26"
		"zpos"			"7"
		"wide"			"32"
		"tall"			"32"
		"visible"		"1"
		"enabled"		"1"
		"scaleImage"	"1"	
		"image"			"../vgui/bleed_drop"
		"fgcolor"		"TanDark"
	}

	"PlayerStatusHookBleedImage"
	{
		"ControlName"	"ImagePanel"
		"fieldName"		"PlayerStatusHookBleedImage"
		"xpos"			"0"
		"ypos"			"r114"
		"ypos_minmode"	"c+26"
		"zpos"			"7"
		"wide"			"32"
		"tall"			"32"
		"visible"		"1"
		"enabled"		"1"
		"scaleImage"	"1"
		"image"			"../vgui/bleed_drop_grapple"
		"fgcolor"		"TanDark"
	}
	
	"PlayerStatusMilkImage"
	{
		"ControlName"	"ImagePanel"
		"fieldName"		"PlayerStatusMilkImage"
		"xpos"			"0"
		"ypos"			"r114"
		"ypos_minmode"	"c+26"
		"zpos"			"7"
		"wide"			"32"
		"tall"			"32"
		"visible"		"1"
		"enabled"		"1"
		"scaleImage"	"1"	
		"image"			"../vgui/bleed_drop"
		"fgcolor"		"TanDark"
	}
	
	"PlayerStatusGasImage"
	{
		"ControlName"	"ImagePanel"
		"fieldName"		"PlayerStatusGasImage"
		"xpos"			"0"
		"ypos"			"r114"
		"ypos_minmode"	"c+26"
		"zpos"			"7"
		"wide"			"32"
		"tall"			"32"
		"visible"		"1"
		"enabled"		"1"
		"scaleImage"	"1"	
		"image"			"../vgui/covered_in_gas"
		"fgcolor"		"TanDark"
	}
	
	"PlayerStatusMarkedForDeathImage"
	{
		"ControlName"	"ImagePanel"
		"fieldName"		"PlayerStatusMarkedForDeathImage"
		"xpos"			"0"
		"ypos"			"r114"
		"ypos_minmode"	"c+26"
		"zpos"			"7"
		"wide"			"32"
		"tall"			"32"
		"visible"		"1"
		"enabled"		"1"
		"scaleImage"	"1"	
		"image"			"../vgui/marked_for_death"
		"fgcolor"		"TanDark"
	}
	"PlayerStatusMarkedForDeathSilentImage"
	{
		"ControlName"	"ImagePanel"
		"fieldName"		"PlayerStatusMarkedForDeathSilentImage"
		"xpos"			"0"
		"ypos"			"r114"
		"ypos_minmode"	"c+26"
		"zpos"			"7"
		"wide"			"31"
		"tall"			"31"
		"visible"		"1"
		"enabled"		"1"
		"scaleImage"	"1"	
		"image"			"../vgui/marked_for_death"
		"fgcolor"		"TanDark"
	}
	"PlayerStatus_MedicUberBulletResistImage"
	{
		"ControlName"	"ImagePanel"
		"fieldName"		"PlayerStatus_MedicUberBulletResistImage"
		"xpos"			"0"
		"ypos"			"r114"
		"ypos_minmode"	"c+26"
		"zpos"			"7"
		"wide"			"31"
		"tall"			"31"
		"visible"		"1"
		"enabled"		"1"
		"scaleImage"	"1"	
		"image"			"../HUD/defense_buff_bullet_blue"
		"fgcolor"		"TanDark"
	}
	"PlayerStatus_MedicUberBlastResistImage"
	{
		"ControlName"	"ImagePanel"
		"fieldName"		"PlayerStatus_MedicUberBlastResistImage"
		"xpos"			"0"
		"ypos"			"r114"
		"ypos_minmode"	"c+26"
		"zpos"			"7"
		"wide"			"31"
		"tall"			"31"
		"visible"		"1"
		"enabled"		"1"
		"scaleImage"	"1"	
		"image"			"../HUD/defense_buff_explosion_blue"
		"fgcolor"		"TanDark"
	}
	"PlayerStatus_MedicUberFireResistImage"
	{
		"ControlName"	"ImagePanel"
		"fieldName"		"PlayerStatus_MedicUberFireResistImage"
		"xpos"			"0"
		"ypos"			"r114"
		"ypos_minmode"	"c+26"
		"zpos"			"7"
		"wide"			"31"
		"tall"			"31"
		"visible"		"1"
		"enabled"		"1"
		"scaleImage"	"1"	
		"image"			"../HUD/defense_buff_fire_blue"
		"fgcolor"		"TanDark"
	}

	"PlayerStatus_MedicSmallBulletResistImage"
	{
		"ControlName"	"ImagePanel"
		"fieldName"		"PlayerStatus_MedicSmallBulletResistImage"
		"xpos"			"0"
		"ypos"			"r114"
		"ypos_minmode"	"c+26"
		"zpos"			"7"
		"wide"			"31"
		"tall"			"31"
		"visible"		"1"
		"enabled"		"1"
		"scaleImage"	"1"	
		"image"			"../HUD/defense_buff_bullet_blue"
		"fgcolor"		"TanDark"
	}
	"PlayerStatus_MedicSmallBlastResistImage"
	{
		"ControlName"	"ImagePanel"
		"fieldName"		"PlayerStatus_MedicSmallBlastResistImage"
		"xpos"			"0"
		"ypos"			"r114"
		"ypos_minmode"	"c+26"
		"zpos"			"7"
		"wide"			"31"
		"tall"			"31"
		"visible"		"1"
		"enabled"		"1"
		"scaleImage"	"1"	
		"image"			"../HUD/defense_buff_explosion_blue"
		"fgcolor"		"TanDark"
	}
	"PlayerStatus_MedicSmallFireResistImage"
	{
		"ControlName"	"ImagePanel"
		"fieldName"		"PlayerStatus_MedicSmallFireResistImage"
		"xpos"			"0"
		"ypos"			"r114"
		"ypos_minmode"	"c+26"
		"zpos"			"7"
		"wide"			"31"
		"tall"			"31"
		"visible"		"1"
		"enabled"		"1"
		"scaleImage"	"1"	
		"image"			"../HUD/defense_buff_fire_blue"
		"fgcolor"		"TanDark"
	}
	

	"PlayerStatus_WheelOfDoom"
	{
		"ControlName"	"ImagePanel"
		"fieldName"		"PlayerStatus_WheelOfDoom"
		"xpos"			"c+284"
		"xpos_minmode"	"c+264"
		"ypos"			"r60"
		"ypos_minmode"	"c+138"
		"zpos"			"7"
		"wide"			"26"
		"tall"			"26"
		"wide_minmode"	"26"
		"tall_minmode"	"26"
		"visible"		"1"
		"enabled"		"1"
		"scaleImage"	"1"	
		"image"			"../signs/death_wheel_whammy"
		"fgcolor"		"TanDark"
	}
	
	"PlayerStatus_SoldierOffenseBuff"
	{
		"ControlName"	"ImagePanel"
		"fieldName"		"PlayerStatus_SoldierOffenseBuff"
		"xpos"			"0"
		"ypos"			"r114"
		"ypos_minmode"	"c+26"
		"zpos"			"7"
		"wide"			"31"
		"tall"			"31"
		"visible"		"1"
		"enabled"		"1"
		"scaleImage"	"1"	
		"image"			"../HUD/defense_buff_bullet_blue"
		"fgcolor"		"TanDark"
	}

	"PlayerStatus_SoldierDefenseBuff"
	{
		"ControlName"	"ImagePanel"
		"fieldName"		"PlayerStatus_SoldierDefenseBuff"
		"xpos"			"0"
		"ypos"			"r114"
		"ypos_minmode"	"c+26"
		"zpos"			"7"
		"wide"			"31"
		"tall"			"31"
		"visible"		"1"
		"enabled"		"1"
		"scaleImage"	"1"	
		"image"			"../HUD/defense_buff_bullet_blue"
		"fgcolor"		"TanDark"
	}

	"PlayerStatus_SoldierHealOnHitBuff"
	{
		"ControlName"	"ImagePanel"
		"fieldName"		"PlayerStatus_SoldierHealOnHitBuff"
		"xpos"			"0"
		"ypos"			"r114"
		"ypos_minmode"	"c+26"
		"zpos"			"7"
		"wide"			"31"
		"tall"			"31"
		"visible"		"1"
		"enabled"		"1"
		"scaleImage"	"1"	
		"image"			"../HUD/defense_buff_bullet_blue"
		"fgcolor"		"TanDark"
	}
	
	"PlayerStatus_SpyMarked"
	{
		"ControlName"	"ImagePanel"
		"fieldName"		"PlayerStatus_SpyMarked"
		"xpos"			"0"
		"ypos"			"r114"
		"ypos_minmode"	"c+26"
		"zpos"			"7"
		"wide"			"31"
		"tall"			"31"
		"visible"		"1"
		"enabled"		"1"
		"scaleImage"	"1"	
		"image"			""
		"fgcolor"		"TanDark"
	}
	
	"PlayerStatus_Parachute"
	{
		"ControlName"	"ImagePanel"
		"fieldName"		"PlayerStatus_Parachute"
		"xpos"			"0"
		"ypos"			"r114"
		"ypos_minmode"	"c+26"
		"zpos"			"7"
		"wide"			"31"
		"tall"			"31"
		"visible"		"1"
		"enabled"		"1"
		"scaleImage"	"1"	
		"image"			""
		"fgcolor"		"TanDark"
	}
	
	"PlayerStatus_RuneStrength"
	{
		"ControlName"	"ImagePanel"
		"fieldName"		"PlayerStatus_RuneStrength"
		"xpos"			"0"
		"ypos"			"r114"
		"ypos_minmode"	"c+26"
		"zpos"			"7"
		"wide"			"31"
		"tall"			"31"
		"visible"		"1"
		"enabled"		"1"
		"scaleImage"	"1"	
		"image"			"../Effects/powerup_strength_hud"
		"fgcolor"		"TanDark"
	}
	"PlayerStatus_RuneHaste"
	{
		"ControlName"	"ImagePanel"
		"fieldName"		"PlayerStatus_RuneHaste"
		"xpos"			"0"
		"ypos"			"r114"
		"ypos_minmode"	"c+26"
		"zpos"			"7"
		"wide"			"31"
		"tall"			"31"
		"visible"		"1"
		"enabled"		"1"
		"scaleImage"	"1"	
		"image"			"../Effects/powerup_haste_hud"
		"fgcolor"		"TanDark"
	}
	"PlayerStatus_RuneRegen"
	{
		"ControlName"	"ImagePanel"
		"fieldName"		"PlayerStatus_RuneRegen"
		"xpos"			"0"
		"ypos"			"r114"
		"ypos_minmode"	"c+26"
		"zpos"			"7"
		"wide"			"31"
		"tall"			"31"
		"visible"		"1"
		"enabled"		"1"
		"scaleImage"	"1"	
		"image"			"../Effects/powerup_regen_hud"
		"fgcolor"		"TanDark"
	}
	"PlayerStatus_RuneResist"
	{
		"ControlName"	"ImagePanel"
		"fieldName"		"PlayerStatus_RuneResist"
		"xpos"			"0"
		"ypos"			"r114"
		"ypos_minmode"	"c+26"
		"zpos"			"7"
		"wide"			"31"
		"tall"			"31"
		"visible"		"1"
		"enabled"		"1"
		"scaleImage"	"1"	
		"image"			"../Effects/powerup_resist_hud"
		"fgcolor"		"TanDark"
	}
	"PlayerStatus_RuneVampire"
	{
		"ControlName"	"ImagePanel"
		"fieldName"		"PlayerStatus_RuneVampire"
		"xpos"			"0"
		"ypos"			"r114"
		"ypos_minmode"	"c+26"
		"zpos"			"7"
		"wide"			"31"
		"tall"			"31"
		"visible"		"1"
		"enabled"		"1"
		"scaleImage"	"1"	
		"image"			"../Effects/powerup_vampire_hud"
		"fgcolor"		"TanDark"
	}
	"PlayerStatus_RuneReflect"
	{
		"ControlName"	"ImagePanel"
		"fieldName"		"PlayerStatus_RuneReflect"
		"xpos"			"0"
		"ypos"			"r114"
		"ypos_minmode"	"c+26"
		"zpos"			"7"
		"wide"			"31"
		"tall"			"31"
		"visible"		"1"
		"enabled"		"1"
		"scaleImage"	"1"	
		"image"			"../Effects/powerup_reflect_hud"
		"fgcolor"		"TanDark"
	}
	"PlayerStatus_RunePrecision"
	{
		"ControlName"	"ImagePanel"
		"fieldName"		"PlayerStatus_RunePrecision"
		"xpos"			"0"
		"ypos"			"r114"
		"ypos_minmode"	"c+26"
		"zpos"			"7"
		"wide"			"31"
		"tall"			"31"
		"visible"		"1"
		"enabled"		"1"
		"scaleImage"	"1"	
		"image"			"../Effects/powerup_precision_hud"
		"fgcolor"		"TanDark"
	}
	"PlayerStatus_RuneAgility"
	{
		"ControlName"	"ImagePanel"
		"fieldName"		"PlayerStatus_RuneAgility"
		"xpos"			"0"
		"ypos"			"r114"
		"ypos_minmode"	"c+26"
		"zpos"			"7"
		"wide"			"31"
		"tall"			"31"
		"visible"		"1"
		"enabled"		"1"
		"scaleImage"	"1"	
		"image"			"../Effects/powerup_agility_hud"
		"fgcolor"		"TanDark"
	}
	"PlayerStatus_RuneKnockout"
	{
		"ControlName"	"ImagePanel"
		"fieldName"		"PlayerStatus_RuneKnockout"
		"xpos"			"0"
		"ypos"			"r114"
		"ypos_minmode"	"c+26"
		"zpos"			"7"
		"wide"			"31"
		"tall"			"31"
		"visible"		"1"
		"enabled"		"1"
		"scaleImage"	"1"	
		"image"			"../Effects/powerup_knockout_hud"
		"fgcolor"		"TanDark"
	}
	"PlayerStatus_RuneKing"
	{
		"ControlName"	"ImagePanel"
		"fieldName"		"PlayerStatus_RuneKing"
		"xpos"			"0"
		"ypos"			"r114"
		"ypos_minmode"	"c+26"
		"zpos"			"7"
		"wide"			"31"
		"tall"			"31"
		"visible"		"1"
		"enabled"		"1"
		"scaleImage"	"1"	
		"image"			"../Effects/powerup_king_hud"
		"fgcolor"		"TanDark"
	}
	"PlayerStatus_RunePlague"
	{
		"ControlName"	"ImagePanel"
		"fieldName"		"PlayerStatus_RunePlague"
		"xpos"			"0"
		"ypos"			"r114"
		"ypos_minmode"	"c+26"
		"zpos"			"7"
		"wide"			"31"
		"tall"			"31"
		"visible"		"1"
		"enabled"		"1"
		"scaleImage"	"1"	
		"image"			"../Effects/powerup_plague_hud"
		"fgcolor"		"TanDark"
	}
	"PlayerStatus_RuneSupernova"
	{
		"ControlName"	"ImagePanel"
		"fieldName"		"PlayerStatus_RuneSupernova"
		"xpos"			"0"
		"ypos"			"r114"
		"ypos_minmode"	"c+26"
		"zpos"			"7"
		"wide"			"31"
		"tall"			"31"
		"visible"		"1"
		"enabled"		"1"
		"scaleImage"	"1"	
		"image"			"../Effects/powerup_supernova_hud"
		"fgcolor"		"TanDark"
	}

	"PlayerStatusSlowed"
	{
		"ControlName"	"ImagePanel"
		"fieldName"		"PlayerStatusSlowed"
		"xpos"			"0"
		"ypos"			"r114"
		"ypos_minmode"	"c+26"
		"zpos"			"7"
		"wide"			"31"
		"tall"			"31"
		"visible"		"1"
		"enabled"		"1"
		"scaleImage"	"1"
		"image"			"../vgui/slowed"
		"fgcolor"		"TanDark"
	}
}
















